5 Embedding Generation – Exploring Large Language Models With R
…
Then, calculate cosine similarity index between our query and other text strings. We use cosine() from lsa package. We combine the numbers with text to make sense of the link between text strings and their corresponding embeddings,

library(lsa)  # for cosine similarity
cos_sim = cosine(mat) # cosine similarities between the vectors

df = data.frame(Text = c(q_text1, docs), Similarity = cos_sim)  # combined into df
df = df |> dplyr::arrange(desc(Similarity.1))  # arrange with respect to Similarity.1
df                                             # i.e. our query

# A tibble: 7 × 8 
  Text                       Similarity.1 Similarity.2 Similarity.3 Similarity.4 
  <chr>                             <dbl>        <dbl>        <dbl>        <dbl> 
1 What animals are llamas r…        1            0.763        0.570        0.700 
2 Llamas are members of the…        0.763        1            0.579        0.543 
3 Llamas can grow as much a…        0.700        0.543        0.516        1     
4 Llamas were first domesti…        0.570        0.579        1            0.516 
5 Llamas are vegetarians an…        0.536        0.660        0.514        0.445 
6 Llamas weigh between 280 …        0.453        0.495        0.512        0.524 
# ℹ 1 more row 
# ℹ 3 more variables: Similarity.5 <dbl>, Similarity.6 <dbl>, …
…
       [,1]  [,2]  [,3]  [,4]  [,5]  [,6]  [,7]
dim_1  1.10  0.08  0.07  1.25 -0.12 -0.49  0.57
dim_2 -0.25  0.06 -0.51  1.13  0.54  2.20 -0.28
dim_3 -3.40 -3.81 -4.53 -3.66 -3.68 -3.78 -3.26
dim_4 -0.65 -0.82 -0.57 -0.54 -0.32  0.70 -0.03
dim_5 -0.13  0.86  0.68 -1.38 -0.07  1.26 -0.48
dim_6  0.62 -0.66  0.43  0.68  1.30 -0.74  2.00

cos_sim = cosine(mat)

df = data.frame(Text = c(q_text2, docs), Similarity = cos_sim)
df = df |> dplyr::arrange(desc(Similarity.1))
df

# A tibble: 7 × 8 
  Text                       Similarity.1 Similarity.2 Similarity.3 Similarity.4 
  <chr>                             <dbl>        <dbl>        <dbl>        <dbl> 
1 How long llamas can live?         1            0.521        0.537        0.745 
2 Llamas can grow as much a…        0.745        0.543        0.516        1     
3 Llamas live to be about 2…        0.593        0.431        0.514        0.499 
4 Llamas were first domesti…        0.537        0.579        1            0.516 
5 Llamas are members of the…        0.521        1            0.579        0.543 
6 Llamas are vegetarians an…        0.452        0.660        0.514        0.445 
# ℹ 1 more row 
# ℹ 3 more variables: Similarity.5 <dbl>, Similarity.6 <dbl>, …
…
